Name                                        Stmts   Miss  Cover
---------------------------------------------------------------
config.py                                      28      2    93%
refrigerator/__init__.py                        1      0   100%
refrigerator/app.py                            83      2    98%
refrigerator/blueprints/faves.py              119      0   100%
refrigerator/blueprints/games.py               42      0   100%
refrigerator/blueprints/sessions.py            56      0   100%
refrigerator/blueprints/users.py               23      0   100%
refrigerator/blueprints/welcome.py              5      0   100%
refrigerator/models/faves.py                   30      0   100%
refrigerator/models/games.py                   92      0   100%
refrigerator/models/handlers.py               111      0   100%
refrigerator/models/users.py                   29      0   100%
refrigerator/utils/response.py                 82      0   100%
refrigerator/utils/time.py                     10      0   100%
tests/__init__.py                               0      0   100%
tests/conftest.py                             103      0   100%
tests/test_app.py                              89      0   100%
tests/test_faves/conftest.py                   37      0   100%
tests/test_faves/test_delete_fave.py           18      0   100%
tests/test_faves/test_get_faves.py             56      0   100%
tests/test_faves/test_patch_fave.py            58      0   100%
tests/test_faves/test_post_fave.py             54      0   100%
tests/test_games/conftest.py                  160      4    98%
tests/test_games/test_get_games.py             76      0   100%
tests/test_games/test_post_game.py             47      0   100%
tests/test_handlers/conftest.py                37      2    95%
tests/test_handlers/test_igdb.py               18      0   100%
tests/test_handlers/test_twitch_auth.py        47      1    98%
tests/test_sessions/test_check_session.py      13      0   100%
tests/test_sessions/test_login.py              38      0   100%
tests/test_sessions/test_logout.py             12      0   100%
tests/test_users.py                            45      0   100%
tests/test_utils.py                            15      2    87%
tests/utils.py                                 46      0   100%
---------------------------------------------------------------
TOTAL                                        1680     13    99%
